<?xml version="1.0" encoding="UTF-8"?>
<svg width="65px" height="45px" viewBox="0 0 65 45" version="1.1" xmlns="http://www.w3.org/2000/svg" xmlns:xlink="http://www.w3.org/1999/xlink">
    <!-- Generator: Sketch 48.2 (47327) - http://www.bohemiancoding.com/sketch -->
    <title>Credit2</title>
    <desc>Created with Sketch.</desc>
    <defs></defs>
    <g id="Home---WIP-|-Illustrations-&amp;-icons" stroke="none" stroke-width="1" fill="none" fill-rule="evenodd" transform="translate(-514.000000, -1062.000000)">
        <g id="Group-18" transform="translate(282.000000, 1021.000000)">
            <g id="Group-16-Copy" transform="translate(58.000000, 0.000000)">
                <g id="Credit2" transform="translate(175.000000, 39.000000)">
                    <g id="2">
                        <g id="ICON">
                            <g id="Credits-2">
                                <g id="Group-7">
                                    <ellipse id="Oval-3" fill-opacity="0.5" fill="#30DE80" cx="36.75" cy="9.40909091" rx="7.35" ry="7.31818182"></ellipse>
                                    <path d="M10.1842528,40.6621079 L1.51079824,40.6621079 C0.676314013,40.6621079 0,39.9773842 0,39.1325235 L0,20.0927872 C0,19.246546 0.676314013,18.5632028 1.51079824,18.5632028 L10.1842528,18.5632028 C11.018737,18.5632028 11.6936875,19.246546 11.6936875,20.0927872 L11.6936875,39.1325235 C11.6936875,39.9773842 11.018737,40.6621079 10.1842528,40.6621079 Z" id="Stroke-3" stroke="#30DE80" stroke-width="2"></path>
                                    <path d="M23.1743905,30.342107 L34.0649551,35.4720127 C36.1702552,36.4632055 38.3246426,34.2005802 37.270629,32.1063749 C35.9370905,29.4585925 34.1290413,27.085528 31.9378384,25.1059034 L28.0552876,21.6353636 C26.9841666,20.6779085 25.6050503,20.1365724 24.1686307,20.1097578 L11.9006723,19.8807438 L11.9006723,38.6305769 L17.0002981,38.6305769 L31.6378605,45.4902382 C32.6400596,45.9596053 33.8072467,45.9002442 34.7589951,45.3287208 L61.5061235,30.1129454 C63.045556,29.1893967 63.7150523,25.0920985 61.9356374,25.2757038 L34.8162636,28.1692136" id="Stroke-5" stroke="#30DE80" stroke-width="2" stroke-linecap="round"></path>
                                </g>
                            </g>
                        </g>
                    </g>
                </g>
            </g>
        </g>
    </g>
</svg>