<?xml version="1.0" encoding="UTF-8"?>
<svg width="42px" height="54px" viewBox="0 0 42 54" version="1.1" xmlns="http://www.w3.org/2000/svg" xmlns:xlink="http://www.w3.org/1999/xlink">
    <!-- Generator: Sketch 48.2 (47327) - http://www.bohemiancoding.com/sketch -->
    <title>Insurance</title>
    <desc>Created with Sketch.</desc>
    <defs></defs>
    <g id="Home---WIP-|-Illustrations-&amp;-icons" stroke="none" stroke-width="1" fill="none" fill-rule="evenodd" transform="translate(-879.000000, -1059.000000)">
        <g id="Group-18" transform="translate(282.000000, 1021.000000)" stroke="#FFFFFF">
            <g id="Group-16-Copy-3" transform="translate(525.000000, 0.000000)">
                <g id="Insurance" transform="translate(73.000000, 40.000000)">
                    <g id="4.1">
                        <path d="M19.0872558,0.129723837 C17.0094689,1.80016464 13.7888992,3.98865353 9.43190728,5.58931642 C5.86786667,6.8981808 2.67061906,7.39931304 0.285404495,7.58538745 L0.285404495,17.5826585 C0.285404495,27.9795666 4.65723777,36.7125552 12.3386888,43.743208 L19.1063376,49.9344113 L26.3022649,43.8277873 C34.6112923,36.7759897 39.4008032,27.6285626 39.4008032,16.7453236 L39.4008032,7.59595986 C36.8438531,7.53886885 33.0317502,7.16037657 28.7171621,5.58931642 C24.302925,3.98231009 21.0908361,1.75998948 19.0872558,0.129723837 Z" id="Stroke-1" stroke-width="2"></path>
                        <g id="check-small" transform="translate(14.117647, 22.534884)" stroke-linecap="round" stroke-linejoin="round" stroke-opacity="0.5" stroke-width="4">
                            <polyline id="Shape" points="0.588235294 3.43106312 4.78991597 7.66694352 12.3529412 0.042358804"></polyline>
                        </g>
                        <path d="M19.2941176,2.37209302 L19.2941176,15.4641545" id="Path-2" stroke-width="2" stroke-linecap="round"></path>
                        <path d="M19.2941176,37.9534884 L19.2941176,48.6734569" id="Path-2-Copy" stroke-width="2" stroke-linecap="round"></path>
                    </g>
                </g>
            </g>
        </g>
    </g>
</svg>