<?xml version="1.0" encoding="UTF-8"?>
<svg width="51px" height="57px" viewBox="0 0 51 57" version="1.1" xmlns="http://www.w3.org/2000/svg" xmlns:xlink="http://www.w3.org/1999/xlink">
    <!-- Generator: Sketch 48.2 (47327) - http://www.bohemiancoding.com/sketch -->
    <title>Savings</title>
    <desc>Created with Sketch.</desc>
    <defs></defs>
    <g id="Home---WIP-|-Illustrations-&amp;-icons" stroke="none" stroke-width="1" fill="none" fill-rule="evenodd" transform="translate(-1045.000000, -1053.000000)">
        <g id="Group-18" transform="translate(282.000000, 1021.000000)">
            <g id="Group-16-Copy-4" transform="translate(700.000000, 0.000000)">
                <g id="Savings" transform="translate(64.000000, 29.000000)">
                    <g id="5.1">
                        <path d="M22.7906977,30.6346154 L30.7674419,30.6346154" id="Shape" stroke="#30DE80" stroke-width="2" stroke-linecap="round"></path>
                        <path d="M49,38.7419082 C49,29.718562 41.7841053,22.4047374 32.8815789,22.4047374 L19.9868421,22.4047374 C19.7753684,22.4047374 19.3421053,22.4047374 19.3421053,22.4047374 C16.1093947,14.730188 9.2095369,19.79079 9.02631579,19.79079 C8.90416838,19.79079 9.64217715,21.5377782 11.2403421,25.0317544 C8.40736842,26.891578 6.19721053,29.6296878 4.96060526,32.8605267 L0,32.8605267 L0,45.9302633 L5.52926316,45.9302633 C7.50731579,50.0080212 11.1036579,53.1316882 15.4736842,54.4255922 L15.4736842,59 L20.6315789,59 L20.6315789,55.079079 L32.2368421,55.079079 L32.2368421,59 L37.3947368,59 L37.3947368,54.4177503 C44.0974211,52.4376852 49,46.1746674 49,38.7419082 Z" id="Shape" stroke="#30DE80" stroke-width="2" stroke-linecap="square"></path>
                        <ellipse id="Oval-3" fill-opacity="0.5" fill="#30DE80" cx="27.3488372" cy="10.7788462" rx="6.8372093" ry="7.375"></ellipse>
                    </g>
                </g>
            </g>
        </g>
    </g>
</svg>