<?xml version="1.0" encoding="utf-8"?>
<!-- Generator: Adobe Illustrator 16.0.0, SVG Export Plug-In . SVG Version: 6.00 Build 0)  -->
<!DOCTYPE svg PUBLIC "-//W3C//DTD SVG 1.1//EN" "http://www.w3.org/Graphics/SVG/1.1/DTD/svg11.dtd">
<svg version="1.1" id="Layer_1" xmlns="http://www.w3.org/2000/svg" xmlns:xlink="http://www.w3.org/1999/xlink" x="0px" y="0px"
	 width="20px" height="22px" viewBox="2 1 20 22" enable-background="new 2 1 20 22" xml:space="preserve">
<path fill="none" stroke="#84929C" stroke-width="2" stroke-linecap="round" stroke-linejoin="round" d="M5,4h14
	c1.104,0,2,0.896,2,2v14c0,1.104-0.896,2-2,2H5c-1.104,0-2-0.896-2-2V6C3,4.896,3.896,4,5,4z"/>
<line fill="none" stroke="#84929C" stroke-width="2" stroke-linecap="round" stroke-linejoin="round" x1="16" y1="2" x2="16" y2="6"/>
<line fill="none" stroke="#84929C" stroke-width="2" stroke-linecap="round" stroke-linejoin="round" x1="8" y1="2" x2="8" y2="6"/>
<line fill="none" stroke="#84929C" stroke-width="2" stroke-linecap="round" stroke-linejoin="round" x1="3" y1="10" x2="21" y2="10"/>
</svg>
